{
  "content": [
    {
      "gtinCode": "888888",
      "organizationId": "72c2c5f8-1c71-4614-a4b3-95e3aee71c3d",
      "registrationDate": "2025-07-14T11:57:34.357",
      "status": "APPROVED",
      "model": "SLV1442B-2NE",
      "productGroup": "dishwashers2019",
      "category": "DISHWASHERS",
      "brand": "SIGNATURE",
      "eprelCode": "2402288",
      "productCode": "888000999",
      "countryOfProduction": "IT",
      "energyClass": "B",
      "linkEprel": "https://eprel.ec.europa.eu/screen/product/dishwashers2019/2402288",
      "batchName": "DISHWASHERS_6874d48dec9e054132fcab52.csv"
    },
    {
      "gtinCode": "880099",
      "organizationId": "72c2c5f8-1c71-4614-a4b3-95e3aee71c3d",
      "registrationDate": "2025-07-14T11:57:34.443",
      "status": "APPROVED",
      "model": "SR65EX02MK",
      "productGroup": "dishwashers2019",
      "category": "DISHWASHERS",
      "brand": "Siemens",
      "eprelCode": "2267356",
      "productCode": "8888888888",
      "countryOfProduction": "IT",
      "energyClass": "C",
      "linkEprel": "https://eprel.ec.europa.eu/screen/product/dishwashers2019/2267356",
      "batchName": "DISHWASHERS_6874d48dec9e054132fcab52.csv"
    },
    {
      "gtinCode": "887777",
      "organizationId": "72c2c5f8-1c71-4614-a4b3-95e3aee71c3d",
      "registrationDate": "2025-07-14T11:57:34.588",
      "status": "APPROVED",
      "model": "WH6IA14PCX",
      "productGroup": "dishwashers2019",
      "category": "DISHWASHERS",
      "brand": "WHIRLPOOL",
      "eprelCode": "2256542",
      "productCode": "888888333",
      "countryOfProduction": "IT",
      "energyClass": "A",
      "linkEprel": "https://eprel.ec.europa.eu/screen/product/dishwashers2019/2256542",
      "batchName": "DISHWASHERS_6874d48dec9e054132fcab52.csv"
    },
    {
      "gtinCode": "998800",
      "organizationId": "72c2c5f8-1c71-4614-a4b3-95e3aee71c3d",
      "registrationDate": "2025-07-14T11:57:41.813",
      "status": "APPROVED",
      "model": "FBE68314MXC 7786587919",
      "productGroup": "ovens",
      "category": "OVENS",
      "brand": "Beko",
      "eprelCode": "2406405",
      "productCode": "999000999",
      "countryOfProduction": "IT",
      "energyClass": "A",
      "linkEprel": "https://eprel.ec.europa.eu/screen/product/ovens/2406405",
      "batchName": "OVENS_6874d494ec9e054132fcab53.csv"
    },
    {
      "gtinCode": "990099",
      "organizationId": "72c2c5f8-1c71-4614-a4b3-95e3aee71c3d",
      "registrationDate": "2025-07-14T11:57:41.894",
      "status": "APPROVED",
      "model": "DTRM 905DF",
      "productGroup": "ovens",
      "category": "OVENS",
      "brand": "De'Longhi",
      "eprelCode": "2407171",
      "productCode": "9998888888",
      "countryOfProduction": "IT",
      "energyClass": "A",
      "linkEprel": "https://eprel.ec.europa.eu/screen/product/ovens/2407171",
      "batchName": "OVENS_6874d494ec9e054132fcab53.csv"
    },
    {
      "gtinCode": "998888",
      "organizationId": "72c2c5f8-1c71-4614-a4b3-95e3aee71c3d",
      "registrationDate": "2025-07-14T11:57:41.968",
      "status": "APPROVED",
      "model": "CK600DF",
      "productGroup": "ovens",
      "category": "OVENS",
      "brand": "KENWOOD",
      "eprelCode": "2407182",
      "productCode": "999777666",
      "countryOfProduction": "IT",
      "energyClass": "A",
      "linkEprel": "https://eprel.ec.europa.eu/screen/product/ovens/2407182",
      "batchName": "OVENS_6874d494ec9e054132fcab53.csv"
    },
    {
      "gtinCode": "997777",
      "organizationId": "72c2c5f8-1c71-4614-a4b3-95e3aee71c3d",
      "registrationDate": "2025-07-14T11:57:42.045",
      "status": "APPROVED",
      "model": "NB-300L",
      "productGroup": "ovens",
      "category": "OVENS",
      "brand": "Nanning Mainline Food Machinery Company Ltd.",
      "eprelCode": "2407065",
      "productCode": "999888333",
      "countryOfProduction": "IT",
      "energyClass": "A++",
      "linkEprel": "https://eprel.ec.europa.eu/screen/product/ovens/2407065",
      "batchName": "OVENS_6874d494ec9e054132fcab53.csv"
    },
    {
      "gtinCode": "996655",
      "organizationId": "72c2c5f8-1c71-4614-a4b3-95e3aee71c3d",
      "registrationDate": "2025-07-14T11:57:42.127",
      "status": "APPROVED",
      "model": "STOFEK45TBL",
      "productGroup": "ovens",
      "category": "OVENS",
      "brand": "Midea",
      "eprelCode": "2406434",
      "productCode": "999444555",
      "countryOfProduction": "IT",
      "energyClass": "A+",
      "linkEprel": "https://eprel.ec.europa.eu/screen/product/ovens/2406434",
      "batchName": "OVENS_6874d494ec9e054132fcab53.csv"
    },
    {
      "gtinCode": "668888",
      "organizationId": "72c2c5f8-1c71-4614-a4b3-95e3aee71c3d",
      "registrationDate": "2025-07-14T11:57:28.117",
      "status": "APPROVED",
      "model": "FLUERIS 60.1 BLACK",
      "productGroup": "rangehoods",
      "category": "RANGEHOODS",
      "brand": "GLOBALO",
      "eprelCode": "2407774",
      "productCode": "666000999",
      "countryOfProduction": "IT",
      "energyClass": "A+",
      "linkEprel": "https://eprel.ec.europa.eu/screen/product/rangehoods/2407774",
      "batchName": "RANGEHOODS_6874d487ec9e054132fcab51.csv"
    },
    {
      "gtinCode": "660099",
      "organizationId": "72c2c5f8-1c71-4614-a4b3-95e3aee71c3d",
      "registrationDate": "2025-07-14T11:57:28.197",
      "status": "APPROVED",
      "model": "SUMOTION 60.1 INOX",
      "productGroup": "rangehoods",
      "category": "RANGEHOODS",
      "brand": "GLOBALO",
      "eprelCode": "2406908",
      "productCode": "6668888888",
      "countryOfProduction": "IT",
      "energyClass": "B",
      "linkEprel": "https://eprel.ec.europa.eu/screen/product/rangehoods/2406908",
      "batchName": "RANGEHOODS_6874d487ec9e054132fcab51.csv"
    }
  ],
  "pageNo": 0,
  "pageSize": 10,
  "totalElements": 21,
  "totalPages": 3
}
